RISCV.sim/sim_1/behav/xsim/output_wave.vcd
$date
   Wed Mar 26 23:20:05 2025
$end
$version
  2022.2
$end
$timescale
  1ps
$end
$scope module stimulus $end
$var reg 1 ! clock $end
$var reg 1 " reset $end
$var wire 1 # zero $end
$scope module test_processor $end
$var wire 1 $ clock $end
$var wire 1 % reset $end
$var wire 1 # zero $end
$var wire 32 & instruction_code [31:0] $end
$var wire 4 ' alu_control [3:0] $end
$var wire 1 ( regwrite $end
$scope module IFU_module $end
$var wire 1 $ clock $end
$var wire 1 % reset $end
$var wire 32 & Instruction_Code [31:0] $end
$var reg 32 ) PC [31:0] $end
$scope module instr_mem $end
$var wire 32 * PC [31:0] $end
$var wire 1 % reset $end
$var wire 32 & Instruction_Code [31:0] $end
$upscope $end
$upscope $end
$scope module control_module $end
$var wire 7 + funct7 [31:25] $end
$var wire 3 , funct3 [14:12] $end
$var wire 7 - opcode [6:0] $end
$var reg 4 . alu_control [3:0] $end
$var reg 1 / regwrite_control $end
$upscope $end
$scope module datapath_module $end
$var wire 5 0 read_reg_num1 [19:15] $end
$var wire 5 1 read_reg_num2 [24:20] $end
$var wire 5 2 write_reg [11:7] $end
$var wire 4 ' alu_control [3:0] $end
$var wire 1 ( regwrite $end
$var wire 1 $ clock $end
$var wire 1 % reset $end
$var wire 1 # zero_flag $end
$var wire 32 3 read_data1 [31:0] $end
$var wire 32 4 read_data2 [31:0] $end
$var wire 32 5 write_data [31:0] $end
$scope module reg_file_module $end
$var wire 5 0 read_reg_num1 [19:15] $end
$var wire 5 1 read_reg_num2 [24:20] $end
$var wire 5 2 write_reg [11:7] $end
$var wire 32 5 write_data [31:0] $end
$var wire 32 3 read_data1 [31:0] $end
$var wire 32 4 read_data2 [31:0] $end
$var wire 1 ( regwrite $end
$var wire 1 $ clock $end
$var wire 1 % reset $end
$var integer 32 6 i [31:0] $end
$upscope $end
$scope module alu_module $end
$var wire 32 3 in1 [31:0] $end
$var wire 32 4 in2 [31:0] $end
$var wire 4 ' alu_control [3:0] $end
$var reg 32 7 alu_result [31:0] $end
$var reg 1 8 zero_flag $end
$upscope $end
$upscope $end
$upscope $end
$upscope $end
$enddefinitions $end
#0
$dumpvars
0!
1"
0#
0$
1%
b100101000000001100110011 &
b10 '
1(
b0 )
b0 *
b0 +
b0 ,
b110011 -
b10 .
1/
b1000 0
b1001 1
b110 2
b1000 3
b1001 4
b10001 5
b0 6
b10001 7
08
$end
#20000
1!
1$
b0 )
b1000 3
b1001 4
#40000
0!
0$
#50000
0"
0%
#60000
1!
1$
b1000001001110010000001110110011 &
b100 '
b100 )
b100 *
b100000 +
b0 ,
b110011 -
b100 .
1/
b10010 0
b10011 1
b111 2
b11000 3
b11001 4
b11111111111111111111111111111111 5
b11111111111111111111111111111111 7
08
#80000
0!
0$
#100000
1!
1$
b11010110100000001010110011 &
b1000 )
b1000 *
b1 +
b0 ,
b110011 -
1/
b10100 0
b10101 1
b101 2
b100000 3
b100001 4
b11111111111111111111111111111111 7
08
#120000
0!
0$
#140000
1!
1$
b1011110110100111000110011 &
b111 '
b1100 )
b1100 *
b0 +
b100 ,
b110011 -
b111 .
1/
b10110 0
b10111 1
b11100 2
b100010 3
b100011 4
b1 5
b1 7
08
#160000
0!
0$
#180000
1!
1#
1$
b1100111000001111010110011 &
b11 '
b10000 )
b10000 *
b0 +
b1 ,
b110011 -
b11 .
1/
b11000 0
b11001 1
b11101 2
b100100 3
b100101 4
b0 5
b0 7
18
#200000
0!
0$
#220000
1!
1$
b1101111010101111100110011 &
b101 '
b10100 )
b10100 *
b0 +
b101 ,
b110011 -
b101 .
1/
b11010 0
b11011 1
b11110 2
b100110 3
b100111 4
b0 7
18
#240000
0!
0$
#260000
1!
0#
1$
b110101100111111110110011 &
b0 '
b11000 )
b11000 *
b0 +
b111 ,
b110011 -
b0 .
1/
b1100 0
b1101 1
b11111 2
b10010 3
b10011 4
b10010 5
b10010 7
08
